<svg xmlns="http://www.w3.org/2000/svg" width="400" height="300" viewBox="0 0 400 300">
  <g>
    <path d="M112.3,156.3q0-10.4,2.6-16.7t9.4-12.2q6.8-6.1,9.1-9.8a15.3,15.3,0,0,0,2.3-7.9q0-12.6-11.7-12.6a12,12,0,0,0-8.9,3.4q-3.3,3.4-3.5,9.4H89.5q.2-14.3,9.3-22.3t24.9-8q15.9,0,24.7,7.6t8.8,21.6a26.1,26.1,0,0,1-2.9,12q-2.9,5.7-10,12.5l-6.1,5.8a20.5,20.5,0,0,0-6.5,12.8l-.3,4.6Zm-2.2,22.8a10.8,10.8,0,0,1,3.4-8.2,13.5,13.5,0,0,1,17.5,0,11.6,11.6,0,0,1,.1,16.4,13.8,13.8,0,0,1-17.7,0A10.8,10.8,0,0,1,110.1,179.1Z" fill="#a2ad00"/>
    <path d="M188.9,156.3q0-10.4,2.6-16.7t9.4-12.2q6.8-6.1,9.1-9.8a15.3,15.3,0,0,0,2.3-7.9q0-12.6-11.7-12.6a12,12,0,0,0-8.9,3.4q-3.3,3.4-3.5,9.4h-22q.2-14.3,9.3-22.3t24.9-8q15.9,0,24.7,7.6t8.8,21.6a26.1,26.1,0,0,1-2.9,12q-2.9,5.7-10,12.5l-6.1,5.8a20.4,20.4,0,0,0-6.5,12.8l-.3,4.6Zm-2.2,22.8a10.8,10.8,0,0,1,3.4-8.2,13.5,13.5,0,0,1,17.5,0,11.6,11.6,0,0,1,.1,16.4,13.8,13.8,0,0,1-17.7,0A10.8,10.8,0,0,1,186.7,179.1Z" fill="#0065bd"/>
    <path d="M265.5,156.3q0-10.4,2.6-16.7t9.4-12.2q6.8-6.1,9.1-9.8a15.3,15.3,0,0,0,2.3-7.9q0-12.6-11.7-12.6a12,12,0,0,0-9.1,3.4q-3.3,3.4-3.5,9.4H242.8q.1-14.3,9.3-22.3t24.9-8q15.9,0,24.7,7.6t8.8,21.6a26.1,26.1,0,0,1-2.9,12q-2.9,5.7-10,12.5l-6.1,5.8a20.4,20.4,0,0,0-6.5,12.8l-.3,4.6Zm-2.2,22.8a10.8,10.8,0,0,1,3.4-8.2,13.5,13.5,0,0,1,17.5,0,11.6,11.6,0,0,1,.1,16.4,13.8,13.8,0,0,1-17.7,0,10.8,10.8,0,0,1-3.3-8.1Z" fill="#e37222"/>
  </g>
  <path d="M157.3,280.5a1.1,1.1,0,0,1-1.1-1.1V231.8H87.5A27.5,27.5,0,0,1,60,204.3V63A27.5,27.5,0,0,1,87.5,35.5h225A27.5,27.5,0,0,1,340,63V204.3a27.5,27.5,0,0,1-27.5,27.5H222.7L158,280.3A.9.9,0,0,1,157.3,280.5Zm5.2-11.4,55.1-41.3,3-2.2h91.9a21.3,21.3,0,0,0,21.3-21.2V63a21.3,21.3,0,0,0-21.2-21.2H87.5A21.3,21.3,0,0,0,66.3,63V204.3a21.3,21.3,0,0,0,21.3,21.3h75Z" fill="#343a40"/>
</svg>
