<?xml version="1.0" encoding="UTF-8" standalone="no"?>
<svg
   xmlns:dc="http://purl.org/dc/elements/1.1/"
   xmlns:cc="http://creativecommons.org/ns#"
   xmlns:rdf="http://www.w3.org/1999/02/22-rdf-syntax-ns#"
   xmlns:svg="http://www.w3.org/2000/svg"
   xmlns="http://www.w3.org/2000/svg"
   xmlns:sodipodi="http://sodipodi.sourceforge.net/DTD/sodipodi-0.dtd"
   xmlns:inkscape="http://www.inkscape.org/namespaces/inkscape"
   sodipodi:docname="delaunay_and_voronoi.svg"
   id="svg8"
   version="1.1"
   viewBox="0 0 80 60"
   height="60mm"
   width="80mm"
   inkscape:version="1.0 (4035a4fb49, 2020-05-01)">
  <defs
     id="defs2" />
  <sodipodi:namedview
     inkscape:window-maximized="1"
     inkscape:window-y="-9"
     inkscape:window-x="-9"
     inkscape:window-height="1013"
     inkscape:window-width="1920"
     showguides="false"
     showgrid="true"
     inkscape:document-rotation="0"
     inkscape:current-layer="layer1"
     inkscape:document-units="mm"
     inkscape:cy="105.42475"
     inkscape:cx="48.471902"
     inkscape:zoom="2"
     inkscape:pageshadow="2"
     inkscape:pageopacity="0.0"
     borderopacity="1.0"
     bordercolor="#666666"
     pagecolor="#ffffff"
     id="base">
    <inkscape:grid
       originy="-100"
       originx="-20"
       id="grid10"
       type="xygrid" />
  </sodipodi:namedview>
  <metadata
     id="metadata5">
    <rdf:RDF>
      <cc:Work
         rdf:about="">
        <dc:format>image/svg+xml</dc:format>
        <dc:type
           rdf:resource="http://purl.org/dc/dcmitype/StillImage" />
        <dc:title></dc:title>
      </cc:Work>
    </rdf:RDF>
  </metadata>
  <g
     transform="translate(-20,-100)"
     style="display:inline"
     id="layer1"
     inkscape:groupmode="layer"
     inkscape:label="Ebene 1">
    <ellipse
       style="opacity:0;fill:#343a40;fill-opacity:1;stroke:#343a40;stroke-width:0.794703;stroke-miterlimit:4;stroke-dasharray:none;stroke-opacity:1"
       id="ellipse852"
       cx="155.51619"
       cy="94.871437"
       rx="2.102649"
       ry="2.1026487" />
    <rect
       y="153.45833"
       x="31.75"
       height="52.916664"
       width="68.491997"
       id="rect1043"
       style="opacity:0;fill:#f8f9fa;fill-opacity:1;stroke:#343a40;stroke-width:0.8;stroke-miterlimit:4;stroke-dasharray:none;stroke-opacity:1" />
    <rect
       y="156.10417"
       x="34.395832"
       height="42.333332"
       width="71.4375"
       id="rect1045"
       style="opacity:0;fill:#f8f9fa;fill-opacity:1;stroke:#343a40;stroke-width:0.799999;stroke-miterlimit:4;stroke-dasharray:none;stroke-opacity:1" />
    <rect
       y="153.45833"
       x="21.166666"
       height="60.854164"
       width="95.25"
       id="rect1047"
       style="opacity:0;fill:#b6faa2;fill-opacity:1;stroke:#343540;stroke-width:0.799999;stroke-miterlimit:4;stroke-dasharray:none;stroke-opacity:1" />
    <rect
       y="145.52083"
       x="34.395832"
       height="63.5"
       width="76.729164"
       id="rect1057"
       style="opacity:0;fill:#b6faa2;fill-opacity:1;stroke:#343540;stroke-width:0.799999;stroke-miterlimit:4;stroke-dasharray:none;stroke-opacity:1" />
    <rect
       y="100.25013"
       x="20.25013"
       height="59.499741"
       width="79.499741"
       id="rect1059"
       style="opacity:1;fill:none;fill-opacity:1;stroke:#343a40;stroke-width:0.500259;stroke-miterlimit:4;stroke-dasharray:none;stroke-opacity:1" />
    <g
       style="display:inline;fill:#a2ad00;fill-opacity:1;stroke:#0065bd;stroke-width:0.5;stroke-miterlimit:4;stroke-dasharray:none;stroke-opacity:1"
       inkscape:label="Voronoi"
       id="g1257">
      <path
         d="M 60.8784,0 59.5892,107.646"
         style="fill:#a2ad00;fill-opacity:1;stroke:#0065bd;stroke-width:0.5;stroke-linecap:round;stroke-linejoin:round;stroke-miterlimit:4;stroke-dasharray:none;stroke-opacity:1"
         id="path1235" />
      <path
         d="m 59.5892,107.646 5.1465,10.694"
         style="fill:#a2ad00;fill-opacity:1;stroke:#0065bd;stroke-width:0.5;stroke-linecap:round;stroke-linejoin:round;stroke-miterlimit:4;stroke-dasharray:none;stroke-opacity:1"
         id="path1237" />
      <path
         d="M 28.2363,127.677 59.5892,107.646"
         style="fill:#a2ad00;fill-opacity:1;stroke:#0065bd;stroke-width:0.5;stroke-linecap:round;stroke-linejoin:round;stroke-miterlimit:4;stroke-dasharray:none;stroke-opacity:1"
         id="path1239" />
      <path
         d="m 64.7357,118.34 31.0326,12.998"
         style="fill:#a2ad00;fill-opacity:1;stroke:#0065bd;stroke-width:0.5;stroke-linecap:round;stroke-linejoin:round;stroke-miterlimit:4;stroke-dasharray:none;stroke-opacity:1"
         id="path1241" />
      <path
         d="m 28.2363,127.677 26.4051,16.045"
         style="fill:#a2ad00;fill-opacity:1;stroke:#0065bd;stroke-width:0.5;stroke-linecap:round;stroke-linejoin:round;stroke-miterlimit:4;stroke-dasharray:none;stroke-opacity:1"
         id="path1243" />
      <path
         d="M 64.7357,118.34 54.6414,143.722"
         style="fill:#a2ad00;fill-opacity:1;stroke:#0065bd;stroke-width:0.5;stroke-linecap:round;stroke-linejoin:round;stroke-miterlimit:4;stroke-dasharray:none;stroke-opacity:1"
         id="path1245" />
      <path
         d="m 54.6414,143.722 4.0127,13.964"
         style="fill:#a2ad00;fill-opacity:1;stroke:#0065bd;stroke-width:0.5;stroke-linecap:round;stroke-linejoin:round;stroke-miterlimit:4;stroke-dasharray:none;stroke-opacity:1"
         id="path1247" />
      <path
         d="M 58.6541,157.686 95.7683,131.338"
         style="fill:#a2ad00;fill-opacity:1;stroke:#0065bd;stroke-width:0.5;stroke-linecap:round;stroke-linejoin:round;stroke-miterlimit:4;stroke-dasharray:none;stroke-opacity:1"
         id="path1249" />
      <path
         d="M 95.7683,131.338 210,126.726"
         style="fill:#a2ad00;fill-opacity:1;stroke:#0065bd;stroke-width:0.5;stroke-linecap:round;stroke-linejoin:round;stroke-miterlimit:4;stroke-dasharray:none;stroke-opacity:1"
         id="path1251" />
      <path
         d="m 0,126.945 28.2363,0.732"
         style="fill:#a2ad00;fill-opacity:1;stroke:#0065bd;stroke-width:0.5;stroke-linecap:round;stroke-linejoin:round;stroke-miterlimit:4;stroke-dasharray:none;stroke-opacity:1"
         id="path1253" />
      <path
         d="M 58.6541,157.686 36.6157,297"
         style="fill:#a2ad00;fill-opacity:1;stroke:#0065bd;stroke-width:0.5;stroke-linecap:round;stroke-linejoin:round;stroke-miterlimit:4;stroke-dasharray:none;stroke-opacity:1"
         id="path1255" />
    </g>
    <g
       style="display:inline;stroke:#e37222;stroke-width:0.5;stroke-miterlimit:4;stroke-dasharray:none;stroke-opacity:1"
       inkscape:label="Delaunay"
       id="g1271">
      <path
         d="M 48.1141,126.714 81.65,110.574 37.4646,110.045 Z"
         style="fill:none;stroke:#e37222;stroke-width:0.5;stroke-linecap:round;stroke-linejoin:round;stroke-miterlimit:4;stroke-dasharray:none;stroke-opacity:1"
         id="path1259" />
      <path
         d="M 48.1141,126.714 71.0666,135.842 81.65,110.574 Z"
         style="fill:none;stroke:#e37222;stroke-width:0.5;stroke-linecap:round;stroke-linejoin:round;stroke-miterlimit:4;stroke-dasharray:none;stroke-opacity:1"
         id="path1261" />
      <path
         d="m 37.4646,110.045 -0.9261,35.719 11.5756,-19.05 z"
         style="fill:none;stroke:#e37222;stroke-width:0.5;stroke-linecap:round;stroke-linejoin:round;stroke-miterlimit:4;stroke-dasharray:none;stroke-opacity:1"
         id="path1263" />
      <path
         d="M 83.3698,153.172 81.65,110.574 71.0666,135.842 Z"
         style="fill:none;stroke:#e37222;stroke-width:0.5;stroke-linecap:round;stroke-linejoin:round;stroke-miterlimit:4;stroke-dasharray:none;stroke-opacity:1"
         id="path1265" />
      <path
         d="m 36.5385,145.764 34.5281,-9.922 -22.9525,-9.128 z"
         style="fill:none;stroke:#e37222;stroke-width:0.5;stroke-linecap:round;stroke-linejoin:round;stroke-miterlimit:4;stroke-dasharray:none;stroke-opacity:1"
         id="path1267" />
      <path
         d="m 36.5385,145.764 46.8313,7.408 -12.3032,-17.33 z"
         style="fill:none;stroke:#e37222;stroke-width:0.5;stroke-linecap:round;stroke-linejoin:round;stroke-miterlimit:4;stroke-dasharray:none;stroke-opacity:1"
         id="path1269" />
    </g>
  </g>
  <g
     transform="translate(-20,-100)"
     inkscape:label="Ebene 2"
     id="layer2"
     inkscape:groupmode="layer">
    <ellipse
       ry="1.2615898"
       rx="1.2615892"
       cy="110.04478"
       cx="37.464584"
       id="ellipse1063"
       style="fill:#343a40;fill-opacity:1;stroke:#343a40;stroke-width:0.47682;stroke-miterlimit:4;stroke-dasharray:none;stroke-opacity:1" />
    <ellipse
       ry="1.2615898"
       rx="1.2615892"
       cy="110.57395"
       cx="81.650002"
       id="ellipse864"
       style="fill:#343a40;fill-opacity:1;stroke:#343a40;stroke-width:0.47682;stroke-miterlimit:4;stroke-dasharray:none;stroke-opacity:1" />
    <ellipse
       style="fill:#343a40;fill-opacity:1;stroke:#343a40;stroke-width:0.47682;stroke-miterlimit:4;stroke-dasharray:none;stroke-opacity:1"
       id="ellipse1061"
       cx="71.066666"
       cy="135.84166"
       rx="1.2615892"
       ry="1.2615898" />
    <ellipse
       ry="1.2615898"
       rx="1.2615892"
       cy="126.71354"
       cx="48.114063"
       id="ellipse860"
       style="fill:#343a40;fill-opacity:1;stroke:#343a40;stroke-width:0.47682;stroke-miterlimit:4;stroke-dasharray:none;stroke-opacity:1" />
    <ellipse
       style="fill:#343a40;fill-opacity:1;stroke:#343a40;stroke-width:0.47682;stroke-miterlimit:4;stroke-dasharray:none;stroke-opacity:1"
       id="ellipse862"
       cx="36.53854"
       cy="145.76355"
       rx="1.2615892"
       ry="1.2615898" />
    <a
       id="a1301">
      <ellipse
         ry="1.2615898"
         rx="1.2615892"
         cy="153.17188"
         cx="83.369797"
         id="ellipse866"
         style="fill:#343a40;fill-opacity:1;stroke:#343a40;stroke-width:0.47682;stroke-miterlimit:4;stroke-dasharray:none;stroke-opacity:1" />
    </a>
  </g>
</svg>
