<svg xmlns="http://www.w3.org/2000/svg" width="350" height="245" viewBox="0 0 350 245" class="{{ include.class }}">
  <g fill="none" stroke="#a2ad00" stroke-width="2" stroke-dasharray="4 2">
    <path d="M87,218.5a48.1,48.1,0,0,1-6-2.8c-10.9-6.1-11.6-12-19.5-15.7s-12,.2-15-3.5,2.6-10.2,2.5-22-7.8-16.3-8-30.5a41.6,41.6,0,0,1,2.5-14.5"/>
    <path d="M99.5,195c-3.6-4.4-8.9-9.2-16-10s-12.2,3.3-15.5.5-1.9-7.7-1-13.5c1.3-8.4,3.9-10.8,5-18a37.9,37.9,0,0,0-.5-13.5"/>
  </g>
  <g fill="none" stroke="#0065bd" stroke-width="2">
    <path d="M218.6,103.2c-2.4,2.2-.2,6.2,3.2,7s12.6-4.1,11.2-6.5S221.7,100.2,218.6,103.2Z"/>
    <path d="M236.1,99.7c-3-2.9-5.3-3.8-15.1-9-16.7-8.9-18.3-10.6-20.7-10-6,1.3-6.1,13.3-.8,22.6,2.7,4.7,6.8,11.8,17.5,14.1,8.8,1.8,21.2.3,24.7-4.5S239.1,102.5,236.1,99.7Z"/>
    <path d="M250.4,71.5C239.5,63.4,231.3,57.5,217,55s-26.7-.4-35.9,1c-13.3,2.1-23.7,3.7-29.5,9s-1.4,11,1.6,28.1c2.4,13.8,1.6,25.1.8,38.2s-2.1,15.4-1.6,26.1c.6,13.1,1,19.7,6.4,24.1,15.1,12.5,51.7,7.9,54.2,7.5,24.9-3.3,39.4-14.3,43.8-18.1,6.6-5.6,10.3-13.3,17.5-28.6s10.3-21.9,10.4-26.1C284.9,97.2,265.7,82.9,250.4,71.5Z"/>
    <path d="M273.6,76.6c-13.8-17.9-20.9-26.9-31.9-31.1-29.2-11.3-66.5-1.4-75.7,1-10.8,2.9-23.2,6.3-28.7,14.1-3.9,5.5-2.9,11-.8,21.1a99.5,99.5,0,0,0,6.4,19.6c2.7,6.7,2.9,11.5-3.2,50.2-4.4,27.8-5.5,31.8,0,37.2,12,11.7,38.5,13.5,47,14.1a131.4,131.4,0,0,0,48.6-6A104.2,104.2,0,0,0,274.4,175c6.8-5.7,29.8-25,27.9-51.2C301.5,112.8,292.2,100.7,273.6,76.6Z"/>
    <path d="M124.5,102.2c4.9,2.6,2.2,8.8.8,12.1-3.5,8.1-13.3,18.1-19.1,17.1-7.7-1.4-11.2-22.8,3.2-28.6C113.7,100.9,120.8,100.2,124.5,102.2Z"/>
    <path d="M125.3,51.9c-3.5,3.7-1.6,3.4-10.4,15.6-10.5,14.6-14.2,16.4-19.1,24.6s-6.3,15.8-8,26.6-3.1,20.3,0,31.6c2,7.2,6.7,24.7,28.7,39.2,27.4,18.1,64,19.7,74.1,20.1,39.9,1.4,84.1-10,108.4-33.2s17.2-49.4,10.3-71.8c-4.4-14.4-13.7-44.8-54.2-62.8a141.7,141.7,0,0,0-41.5-11.1C180.3,27.5,140.7,35.6,125.3,51.9Z"/>
    <path d="M110.1,40.9c-5.9,4.7-11.9,14-23.9,32.7s-19.1,29.6-23.9,42.2c-7.7,19.9-7.7,23.6-4.9,55.8.3,3.5-1.6,12.7,0,15.4s22.1,10,26.6,12.6c19.5,11.2,42,12.4,66,15.2,33.8,4,118.2,14,160.2-17.1,27.4-20.3,22.8-47.6,17.5-79.4-2.9-17.6-8.4-46.7-42.3-72.8-12.6-9.7-28.5-22-56.6-27.7C185,9,134.8,21.3,110.1,40.9Z"/>
  </g>
  <g fill="none" stroke="#e37222" stroke-width="4">
    <path d="M78.3,44.9c-10,8.7-10.5,12.5-27.9,40.7-29,47.1-32.5,44.8-38.3,60.8-7.3,20.5-17,47.4,4.8,66.8,19.7,17.5,55,20,98,23.1,56.3,4,141.5,10.1,192.9-25.6,30.5-21.2,35.2-47.5,37.5-60.3,5.7-31.9-10-56-22.3-74.9-18.6-28.5-32.8-50.3-70.1-62.3C207-1.4,159,9.1,149.2,11.2,112,19.4,89.2,35.3,78.3,44.9Z"/>
    <path d="M257.6,105.2c-1.5-3.6-5.1-12-15.9-20.6A78.1,78.1,0,0,0,201,67.5c-8.1-1-19-2.3-25.5,1.5-8.3,4.8-4.4,14.6,2.4,31.6,5.8,14.7,9,22.2,19.1,28.6,5,3.2,17,10.8,32.7,9.5s27.9-11.3,30.3-20.1C261.3,114.1,259.8,110.5,257.6,105.2Z"/>
    <path d="M194.6,150.4c-8.6-3-10.5-5.2-14.3-4.5-7,1.2-11.3,10.3-8,17.6.3.6,4.9,10.1,19.1,12.1s23.7-4.8,26.3-6.5,10.2-6.7,8-10.5S212,156.4,194.6,150.4Z"/>
  </g>
  <g>
    <g fill="#e37222" font-size="0.8rem" stroke="#fff" stroke-width="10" stroke-linejoin="round">
      <text transform="translate(94 238) rotate(4)">100</text>
      <text transform="translate(50 93) rotate(-58)">100</text>
      <text transform="translate(179 176) rotate(15)">150</text>
      <text transform="translate(233 142) rotate(-18)">150</text>
    </g>
    <g fill="#e37222" font-size="0.8rem">
    <text transform="translate(94 238) rotate(4)">100</text>
    <text transform="translate(50 93) rotate(-58)">100</text>
    <text transform="translate(179 176) rotate(15)">150</text>
    <text transform="translate(233 142) rotate(-18)">150</text>
    </g>
  </g>
  </svg>
