<svg xmlns="http://www.w3.org/2000/svg" width="400" height="300" viewBox="0 0 400 300">
  <g fill="none" stroke="#e37222" stroke-linecap="round" stroke-linejoin="round" stroke-width="2">
    <g>
      <line x1="135.4" y1="127.6" x2="149.6" y2="113.4"/>
      <line x1="135.4" y1="113.4" x2="149.6" y2="127.6"/>
    </g>
    <g>
      <line x1="25.4" y1="129.6" x2="39.6" y2="115.4"/>
      <line x1="25.4" y1="115.4" x2="39.6" y2="129.6"/>
    </g>
    <g>
      <line x1="232.4" y1="111.6" x2="246.6" y2="97.4"/>
      <line x1="232.4" y1="97.4" x2="246.6" y2="111.6"/>
    </g>
  </g>
  <g fill="none" stroke="#a2ad00" stroke-width="2" stroke-dasharray="2 2">
    <line x1="88" y1="138" x2="88" y2="238"/>
    <line x1="18.5" y1="63" x2="18.5" y2="163"/>
    <line x1="205.5" y1="81" x2="205.5" y2="181"/>
    <line x1="298" y1="125" x2="298" y2="225"/>
    <line x1="381" y1="62" x2="381" y2="162"/>
  </g>
  <g stroke="#0065bd">
    <polyline points="18.6 162.3 88.4 237.7 205.6 180.5 297.7 225.1 381.4 162.3" fill="none" stroke-width="5"/>
    <g fill="#fff" stroke-width="4">
      <circle cx="18.6" cy="162.3" r="5"/>
      <circle cx="88.4" cy="237.7" r="5"/>
      <circle cx="205.6" cy="181" r="5"/>
      <circle cx="297.7" cy="225.1" r="5"/>
      <circle cx="381.4" cy="162.3" r="5"/>
    </g>
  </g>
  <g stroke="#343a40">
    <polyline points="18.4 62.3 32.4 104.2 88.3 137.7 142.7 102.8 205.6 80.4 239.1 86 297.8 125.1 381.6 62.3" fill="none" stroke-width="5"/>
    <g fill="#fff" stroke-width="4">
      <circle cx="18.5" cy="62.3" r="5"/>
      <circle cx="32.4" cy="104.2" r="5"/>
      <circle cx="88.3" cy="137.7" r="5"/>
      <circle cx="142.7" cy="102.8" r="5"/>
      <circle cx="205.6" cy="80.4" r="5"/>
      <circle cx="239.1" cy="86" r="5"/>
      <circle cx="297.8" cy="125.1" r="5"/>
      <circle cx="381.5" cy="62.3" r="5"/>
    </g>
  </g>
</svg>
