<svg xmlns="http://www.w3.org/2000/svg" class="{{ include.class }}" viewBox="0 0 560 240">
  <path id="four-first" fill="#e0e0e0" d="M131.84,172.8H160v24H131.84V240h-24V196.8H0L47.72,0H72.44L30.56,172.8h77.25V130.63h24Z"/>
  <path id="compass" fill="#607d8b" d="M280,0A120,120,0,1,1,160,120,120,120,0,0,1,280,0m0,24a96,96,0,1,0,96,96A96,96,0,0,0,280,24Z"/>
  <!-- <path id="needle2" fill="#e37222" d="M258.4,98.4,220,180l81.6-38.4L340,60ZM280,130.8A10.8,10.8,0,1,1,290.8,120,10.8,10.8,0,0,1,280,130.8Z"/> -->
  <g id="needle">
    <path fill="#e5e3da" d="M287.6,127.6c-2,2-4.7,3.2-7.6,3.2c-6,0-10.8-4.8-10.8-10.8c0-3,1.2-5.7,3.2-7.6l-14-14L220,180l81.6-38.4L287.6,127.6z"/>
    <path fill="#e37222" d="M258.4,98.4l14,14c2-2,4.7-3.2,7.6-3.2c6,0,10.8,4.8,10.8,10.8c0,3-1.2,5.7-3.2,7.6l14,14L340,60L258.4,98.4z"/>
  </g>
  <path id="four-last" fill="#e0e0e0" d="M531.84,172.8H560v24H531.84V240h-24V196.8H400L447.72,0h24.72L430.56,172.8h77.25V130.63h24Z"/>
</svg>
