<svg xmlns="http://www.w3.org/2000/svg" width="390" height="130" viewBox="0 0 300 100" class="{{ include.class }}">
  <g>
    <path d="M40.6,99H3a2,2,0,0,1-2-2V46c7.3,1.8,14.6,9.4,19,14C29.1,69.4,39.2,85.6,40.6,99Z" fill="#0065bd"/>
    <polyline points="47.1 1 72.8 26.4 99 52.2" fill="none" stroke="#6c757d" stroke-miterlimit="10" stroke-width="2"/>
    <line x1="72.8" y1="26.4" x2="31" y2="63" fill="none" stroke="#6c757d" stroke-linecap="round" stroke-miterlimit="10" stroke-width="2"/>
    <rect x="18.6" y="45" width="9.4" height="9.4" transform="translate(38 -3.2) rotate(40.6)" fill="#e37222"/>
    <rect x="35.6" y="67" width="9.4" height="9.4" transform="translate(82.2 1) rotate(60)" fill="#e37222"/>
  </g>
  <g>
    <path d="M240.6,99H203a2,2,0,0,1-2-2V46c7.3,1.8,14.6,9.4,19,14C229.1,69.4,239.2,85.6,240.6,99Z" fill="#0065bd"/>
    <polyline points="247.1 1 272.8 26.4 299 52.2" fill="none" stroke="#6c757d" stroke-linecap="square" stroke-miterlimit="10" stroke-width="4"/>
    <line x1="272.8" y1="26.4" x2="231" y2="63" fill="none" stroke="#6c757d" stroke-miterlimit="10" stroke-width="8"/>
    <rect x="218.6" y="45" width="9.4" height="9.4" transform="translate(86.1 -133.4) rotate(40.6)" fill="#e37222"/>
    <rect x="235.6" y="67" width="9.4" height="9.4" transform="translate(182.2 -172.2) rotate(60)" fill="#e37222"/>
    <circle cx="231" cy="63" r="4" fill="#6c757d"/>
  </g>
  <g>
    <rect x="1" y="1" width="98" height="98" rx="2" ry="2" fill="none" stroke="#343a40" stroke-miterlimit="10" stroke-width="2"/>
    <rect x="201" y="1" width="98" height="98" rx="2" ry="2" fill="none" stroke="#343a40" stroke-miterlimit="10" stroke-width="2"/>
    <g>
      <line x1="125" y1="50" x2="169.6" y2="50" fill="none" stroke="#343a40" stroke-miterlimit="10" stroke-width="5"/>
      <polygon points="153 70.4 149.6 66.8 167.7 50 149.6 33.2 153 29.6 175 50 153 70.4" fill="#343a40"/>
    </g>
  </g>
</svg>
