<svg xmlns="http://www.w3.org/2000/svg" width="400" height="280" viewBox="0 0 105.833 74.083">
  <defs>
    <marker orient="auto" refY="0" refX="0" id="a" overflow="visible">
      <path d="M1.926 1.21L-1.352.005l3.278-1.206a2.05 2.05 0 000 2.411z" fill="#a2ad00" fill-rule="evenodd" stroke="#a2ad00" stroke-width=".1875" stroke-linejoin="round"/>
    </marker>
    <marker orient="auto" refY="0" refX="0" id="b" overflow="visible">
      <path d="M-1.926-1.21L1.352-.005l-3.278 1.206a2.05 2.05 0 000-2.411z" fill="#a2ad00" fill-rule="evenodd" stroke="#a2ad00" stroke-width=".1875" stroke-linejoin="round"/>
    </marker>
  </defs>
  <g fill="none" stroke="#0065bd">
    <path d="M143.922 195.905c-26.513 4.691-53.806 20.335-70.3 42.31m-3.038 3.612c-11.953 17.385-27.7 33.415-64.996 50.277" stroke-width="3.076" transform="matrix(.70591 0 0 .70526 .634 -134.603)"/>
    <path d="M74.088 240.983a2.34 2.382 0 01-3.136 1.076 2.34 2.382 0 01-1.057-3.192 2.34 2.382 0 013.136-1.077 2.34 2.382 0 011.057 3.193" stroke-width="1.5" transform="matrix(.70591 0 0 .70526 .634 -134.603)"/>
  </g>
  <path d="M15.66 219.496h111.852" fill="none" stroke="#adb5bd" stroke-width="1.013" stroke-dasharray="4.053 2.027" transform="matrix(.70591 0 0 .70526 .545 -134.819)"/>
  <path d="M15.777 240.37H127.63" fill="none" stroke="#adb5bd" stroke-width="1.013" transform="matrix(.70591 0 0 .70526 .545 -134.819)"/>
  <path d="M15.676 264.438h111.851" fill="none" stroke="#adb5bd" stroke-width="1.013" stroke-dasharray="4.053 2.027" transform="matrix(.70591 0 0 .70526 .545 -134.819)"/>
  <path d="M72.162 221.091L71.8 262.92" fill="#a2ad00" stroke="#a2ad00" stroke-width=".881" stroke-dasharray=".881 .881" marker-start="url(#a)" marker-end="url(#b)" transform="matrix(.70591 0 0 .70526 .545 -134.819)"/>
  <text style="line-height:1.25000012" x="42.124" y="28.618" transform="scale(1.00047 .99953)" font-weight="400" font-size="3.236" font-family="sans-serif" letter-spacing="0" word-spacing="0" stroke-width=".187">
    <tspan x="42.124" y="28.618">+ m<tspan baseline-shift="sub">H</tspan></tspan>
  </text>
  <text style="line-height:1.25000012" x="54.587" y="45.802" transform="scale(1.00047 .99953)" font-weight="400" font-size="3.236" font-family="sans-serif" letter-spacing="0" word-spacing="0" stroke-width=".187">
    <tspan x="54.587" y="45.802">- m<tspan baseline-shift="sub">H</tspan></tspan>
  </text>
</svg>
