<svg xmlns="http://www.w3.org/2000/svg" width="520" height="120" viewBox="0 0 260 60">
  <g fill="none" stroke="#adb5bd" stroke-dasharray="2 2">
    <line x1="13" y1="51" x2="248" y2="51"/>
    <line x1="13" y1="43" x2="248" y2="43"/>
    <line x1="13" y1="19.5" x2="248" y2="19.5"/>
    <line x1="13" y1="11" x2="248" y2="11"/>
  </g>
  <g fill="#343a40">
    <path d="M44.82,13.25V19H43.77V14.31h-9.3V40.63h3.18v1.05H30.23V40.63h3.18V14.31h-9.3V19H23.07V13.25Z"/>
    <path d="M52.34,21.61H49.57l6.54,16.25L56.89,40H57l.12-.31,6.89-18H61.25V20.56H67.5v1.05H65.2l-9,23.59a13.22,13.22,0,0,1-2,3.62,4.44,4.44,0,0,1-3.64,1.4,5.51,5.51,0,0,1-.82-.07,3.8,3.8,0,0,1-.66-.15l.18-1a5.43,5.43,0,0,0,.64.12,5.27,5.27,0,0,0,.66.06,3.69,3.69,0,0,0,2.8-1.05A9.26,9.26,0,0,0,55.16,45l1.27-3.44-8-20h-2.3V20.56h6.23Z"/>
    <path d="M69.45,48.76h3.18V21.61H69.45V20.56h4l.21,3.79a8,8,0,0,1,2.87-3.07,8.1,8.1,0,0,1,4.32-1.11,6.8,6.8,0,0,1,5.85,3,13.45,13.45,0,0,1,2.12,8v.41a12.74,12.74,0,0,1-2.11,7.73A6.84,6.84,0,0,1,80.9,42.1a9,9,0,0,1-4.33-1,7.42,7.42,0,0,1-2.88-2.7V48.76h3.18v1.05H69.45ZM87.75,31.1A13,13,0,0,0,86,24a5.71,5.71,0,0,0-5.11-2.74,6.84,6.84,0,0,0-4.77,1.54,8.57,8.57,0,0,0-2.42,3.79v9.88a6.83,6.83,0,0,0,2.62,3.36A8,8,0,0,0,80.92,41,5.76,5.76,0,0,0,86,38.47a12.22,12.22,0,0,0,1.75-7Z"/>
    <path d="M92.89,30.71a11.15,11.15,0,0,1,2.57-7.6,9,9,0,0,1,13.36,0,11.15,11.15,0,0,1,2.57,7.6v.82a11.18,11.18,0,0,1-2.57,7.62,9,9,0,0,1-13.35,0,11.15,11.15,0,0,1-2.58-7.62Zm1.05.82a10.41,10.41,0,0,0,2.23,6.75,7.81,7.81,0,0,0,11.93,0,10.42,10.42,0,0,0,2.23-6.74v-.82A10.37,10.37,0,0,0,108.09,24a7.73,7.73,0,0,0-11.91,0,10.43,10.43,0,0,0-2.23,6.69Z"/>
    <path d="M114.26,31.08A16.05,16.05,0,0,1,116,25.32a10.14,10.14,0,0,1,3.45-3.9,8.3,8.3,0,0,1,4.69-1.28,5.77,5.77,0,0,1,4.8,2.29l.68-1.89,5.94,0-3.46,20.31a9.93,9.93,0,0,1-3.77,6.78A12,12,0,0,1,120.41,50a11.33,11.33,0,0,1-4.08-.84,8.8,8.8,0,0,1-3.38-2.42L116,43a5.53,5.53,0,0,0,4.41,2.21q4.28.08,5.43-4.55L126,40a6.61,6.61,0,0,1-4.82,2.11,6.52,6.52,0,0,1-3.57-1,6.74,6.74,0,0,1-2.42-2.9,11.28,11.28,0,0,1-1-4.22A18.28,18.28,0,0,1,114.26,31.08Zm6.35,2.09a5.12,5.12,0,0,0,.64,2.79,2.19,2.19,0,0,0,1.88,1,4.29,4.29,0,0,0,3.3-1.41l1.66-9a2.85,2.85,0,0,0-2.62-1.41,3.74,3.74,0,0,0-3.14,1.59,8.58,8.58,0,0,0-1.6,4.29Q120.61,32.33,120.61,33.17Z"/>
    <path d="M150.94,26.51a18.52,18.52,0,0,0-2-.2,5,5,0,0,0-4.41,2l-2.38,13.38h-6.43l3.67-21.13,6,0-.49,2.77q2.07-3.2,4.88-3.2a9.22,9.22,0,0,1,2,.27Z"/>
    <path d="M161.91,41.69a5.72,5.72,0,0,1-.27-1.91,6.52,6.52,0,0,1-5.18,2.3,6.37,6.37,0,0,1-4.57-1.84,5.52,5.52,0,0,1-1.7-4.36,6.2,6.2,0,0,1,2.87-5.28,13.54,13.54,0,0,1,7.58-1.85l2.15,0,.23-1.19.08-1a1.68,1.68,0,0,0-1.78-1.84q-2.11,0-2.6,2.32l-6.45,0a6.12,6.12,0,0,1,1.39-3.7A8.22,8.22,0,0,1,157.18,21a12.25,12.25,0,0,1,4.72-.79,9.45,9.45,0,0,1,4.21,1,6.27,6.27,0,0,1,2.71,2.64,6.74,6.74,0,0,1,.68,3.9l-1.58,9.94-.1,1.21a5.34,5.34,0,0,0,.37,2.46l0,.37Zm-3.67-4.26a4.14,4.14,0,0,0,3.46-1.74l.64-3.4-1.66,0a4.38,4.38,0,0,0-2.66.91,3.44,3.44,0,0,0-1.31,2.37,1.73,1.73,0,0,0,.3,1.32A1.54,1.54,0,0,0,158.24,37.43Z"/>
    <path d="M191.66,31.14a17.54,17.54,0,0,1-1.74,5.91,9.66,9.66,0,0,1-3.29,3.85,7.59,7.59,0,0,1-4.38,1.2,5.74,5.74,0,0,1-4.49-2.19l-1.91,9.9h-6.43l5.08-29.26,5.94,0-.33,2a6.21,6.21,0,0,1,5-2.38,5.92,5.92,0,0,1,4.81,2.21,9.75,9.75,0,0,1,1.85,5.92A22.7,22.7,0,0,1,191.66,31.14Zm-6.25-2.62q-.1-3.22-2.19-3.28a3.79,3.79,0,0,0-3.38,1.66l-1.5,8.38A2.61,2.61,0,0,0,181,37q3.42.06,4.2-5.88Q185.41,29.27,185.41,28.53Z"/>
    <path d="M202.11,22.86a6.9,6.9,0,0,1,5.45-2.71,5.49,5.49,0,0,1,4.72,2.32,8.85,8.85,0,0,1,1.1,6.09l-2.19,13.12h-6.43L207,28.47a6.84,6.84,0,0,0,0-1.25,2,2,0,0,0-2.15-2,4.16,4.16,0,0,0-3.09,1.27l-2.7,15.19h-6.43l5.21-30h6.43Z"/>
    <path d="M224.61,32.39l5.47-11.84h7.09l-12.38,24.3A10.6,10.6,0,0,1,221.59,49a7.26,7.26,0,0,1-4.31,1.28,12.18,12.18,0,0,1-2.83-.43l.49-4.71h.74a5.32,5.32,0,0,0,2.09-.38,3.18,3.18,0,0,0,1.5-1.47l.92-1.76-3.38-21h6.64Z"/>
  </g>
</svg>
