<?xml version="1.0" encoding="UTF-8" standalone="no"?>
<svg
   xmlns:dc="http://purl.org/dc/elements/1.1/"
   xmlns:cc="http://creativecommons.org/ns#"
   xmlns:rdf="http://www.w3.org/1999/02/22-rdf-syntax-ns#"
   xmlns:svg="http://www.w3.org/2000/svg"
   xmlns="http://www.w3.org/2000/svg"
   xmlns:sodipodi="http://sodipodi.sourceforge.net/DTD/sodipodi-0.dtd"
   xmlns:inkscape="http://www.inkscape.org/namespaces/inkscape"
   sodipodi:docname="card.svg"
   id="svg8"
   version="1.1"
   viewBox="0 0 400 300"
   height="300mm"
   width="400mm"
   inkscape:version="1.0 (4035a4fb49, 2020-05-01)">
  <defs
     id="defs2" />
  <sodipodi:namedview
     inkscape:window-maximized="1"
     inkscape:window-y="-9"
     inkscape:window-x="-9"
     inkscape:window-height="1013"
     inkscape:window-width="1920"
     showguides="false"
     showgrid="true"
     inkscape:document-rotation="0"
     inkscape:current-layer="layer1"
     inkscape:document-units="mm"
     inkscape:cy="554.95793"
     inkscape:cx="587.38233"
     inkscape:zoom="0.63801637"
     inkscape:pageshadow="2"
     inkscape:pageopacity="0.0"
     borderopacity="1.0"
     bordercolor="#666666"
     pagecolor="#ffffff"
     id="base">
    <inkscape:grid
       originy="-100"
       originx="-20"
       id="grid10"
       type="xygrid" />
  </sodipodi:namedview>
  <metadata
     id="metadata5">
    <rdf:RDF>
      <cc:Work
         rdf:about="">
        <dc:format>image/svg+xml</dc:format>
        <dc:type
           rdf:resource="http://purl.org/dc/dcmitype/StillImage" />
        <dc:title />
      </cc:Work>
    </rdf:RDF>
  </metadata>
  <g
     transform="translate(-20.000002,-100)"
     style="display:inline"
     id="layer1"
     inkscape:groupmode="layer"
     inkscape:label="Ebene 1">
    <g
       style="fill:none;fill-opacity:1;stroke:#e37222;stroke-width:2;stroke-miterlimit:4;stroke-dasharray:none;stroke-opacity:1"
       inkscape:label="Delaunay"
       id="g184"
       transform="translate(2.0479167e-6)">
      <path
         d="M 168.836,198.852 365.125,134.938 88.9472,153.4 Z"
         style="fill:none;fill-opacity:1;stroke:#e37222;stroke-width:2;stroke-linecap:round;stroke-linejoin:round;stroke-miterlimit:4;stroke-dasharray:none;stroke-opacity:1"
         id="path164" />
      <path
         d="m 168.836,198.852 130.201,-6.734 66.088,-57.18 z"
         style="fill:none;fill-opacity:1;stroke:#e37222;stroke-width:2;stroke-linecap:round;stroke-linejoin:round;stroke-miterlimit:4;stroke-dasharray:none;stroke-opacity:1"
         id="path166" />
      <path
         d="m 168.836,198.852 108.798,55.319 21.403,-62.053 z"
         style="fill:none;fill-opacity:1;stroke:#e37222;stroke-width:2;stroke-linecap:round;stroke-linejoin:round;stroke-miterlimit:4;stroke-dasharray:none;stroke-opacity:1"
         id="path168" />
      <path
         d="M 205.977,280.003 277.634,254.171 168.836,198.852 Z"
         style="fill:none;fill-opacity:1;stroke:#e37222;stroke-width:2;stroke-linecap:round;stroke-linejoin:round;stroke-miterlimit:4;stroke-dasharray:none;stroke-opacity:1"
         id="path170" />
      <path
         d="M 87.9841,334.66 168.836,198.852 88.9472,153.4 Z"
         style="fill:none;fill-opacity:1;stroke:#e37222;stroke-width:2;stroke-linecap:round;stroke-linejoin:round;stroke-miterlimit:4;stroke-dasharray:none;stroke-opacity:1"
         id="path172" />
      <path
         d="M 87.9841,334.66 205.977,280.003 168.836,198.852 Z"
         style="fill:none;fill-opacity:1;stroke:#e37222;stroke-width:2;stroke-linecap:round;stroke-linejoin:round;stroke-miterlimit:4;stroke-dasharray:none;stroke-opacity:1"
         id="path174" />
      <path
         d="m 370.417,367.771 -71.38,-175.653 -21.403,62.053 z"
         style="fill:none;fill-opacity:1;stroke:#e37222;stroke-width:2;stroke-linecap:round;stroke-linejoin:round;stroke-miterlimit:4;stroke-dasharray:none;stroke-opacity:1"
         id="path176" />
      <path
         d="m 370.417,367.771 -5.292,-232.833 -66.088,57.18 z"
         style="fill:none;fill-opacity:1;stroke:#e37222;stroke-width:2;stroke-linecap:round;stroke-linejoin:round;stroke-miterlimit:4;stroke-dasharray:none;stroke-opacity:1"
         id="path178" />
      <path
         d="m 205.977,280.003 164.44,87.768 -92.783,-113.6 z"
         style="fill:none;fill-opacity:1;stroke:#e37222;stroke-width:2;stroke-linecap:round;stroke-linejoin:round;stroke-miterlimit:4;stroke-dasharray:none;stroke-opacity:1"
         id="path180" />
      <path
         d="M 87.9841,334.66 370.417,367.771 205.977,280.003 Z"
         style="fill:none;fill-opacity:1;stroke:#e37222;stroke-width:2;stroke-linecap:round;stroke-linejoin:round;stroke-miterlimit:4;stroke-dasharray:none;stroke-opacity:1"
         id="path182" />
    </g>
    <g
       style="stroke:#0065bd;stroke-width:2;stroke-miterlimit:4;stroke-dasharray:none;stroke-opacity:1"
       inkscape:label="Voronoi"
       transform="translate(20.000002,100)"
       id="g162">
      <path
         d="m 208.998,0 5.407,104.543"
         style="fill:none;stroke:#0065bd;stroke-width:2;stroke-linecap:round;stroke-linejoin:round;stroke-miterlimit:4;stroke-dasharray:none;stroke-opacity:1"
         id="path134" />
      <path
         d="m 214.405,104.543 -8.862,17.43"
         style="fill:none;stroke:#0065bd;stroke-width:2;stroke-linecap:round;stroke-linejoin:round;stroke-miterlimit:4;stroke-dasharray:none;stroke-opacity:1"
         id="path136" />
      <path
         d="M 152.203,0 70.253,144.04"
         style="fill:none;stroke:#0065bd;stroke-width:2;stroke-linecap:round;stroke-linejoin:round;stroke-miterlimit:4;stroke-dasharray:none;stroke-opacity:1"
         id="path138" />
      <path
         d="M 70.253,144.04 108.1,166.571"
         style="fill:none;stroke:#0065bd;stroke-width:2;stroke-linecap:round;stroke-linejoin:round;stroke-miterlimit:4;stroke-dasharray:none;stroke-opacity:1"
         id="path140" />
      <path
         d="m 108.1,166.571 97.443,-44.598"
         style="fill:none;stroke:#0065bd;stroke-width:2;stroke-linecap:round;stroke-linejoin:round;stroke-miterlimit:4;stroke-dasharray:none;stroke-opacity:1"
         id="path142" />
      <path
         d="m 214.405,104.543 154.628,53.333"
         style="fill:none;stroke:#0065bd;stroke-width:2;stroke-linecap:round;stroke-linejoin:round;stroke-miterlimit:4;stroke-dasharray:none;stroke-opacity:1"
         id="path144" />
      <path
         d="m 369.033,157.876 18.26,-7.42"
         style="fill:none;stroke:#0065bd;stroke-width:2;stroke-linecap:round;stroke-linejoin:round;stroke-miterlimit:4;stroke-dasharray:none;stroke-opacity:1"
         id="path146" />
      <path
         d="M 257.116,0 387.293,150.456"
         style="fill:none;stroke:#0065bd;stroke-width:2;stroke-linecap:round;stroke-linejoin:round;stroke-miterlimit:4;stroke-dasharray:none;stroke-opacity:1"
         id="path148" />
      <path
         d="m 205.543,121.973 47.185,130.895"
         style="fill:none;stroke:#0065bd;stroke-width:2;stroke-linecap:round;stroke-linejoin:round;stroke-miterlimit:4;stroke-dasharray:none;stroke-opacity:1"
         id="path150" />
      <path
         d="M 252.728,252.868 369.033,157.876"
         style="fill:none;stroke:#0065bd;stroke-width:2;stroke-linecap:round;stroke-linejoin:round;stroke-miterlimit:4;stroke-dasharray:none;stroke-opacity:1"
         id="path152" />
      <path
         d="M 108.1,166.571 169.907,300"
         style="fill:none;stroke:#0065bd;stroke-width:2;stroke-linecap:round;stroke-linejoin:round;stroke-miterlimit:4;stroke-dasharray:none;stroke-opacity:1"
         id="path154" />
      <path
         d="M 252.728,252.868 227.572,300"
         style="fill:none;stroke:#0065bd;stroke-width:2;stroke-linecap:round;stroke-linejoin:round;stroke-miterlimit:4;stroke-dasharray:none;stroke-opacity:1"
         id="path156" />
      <path
         d="M 387.293,150.456 400,150.167"
         style="fill:none;stroke:#0065bd;stroke-width:2;stroke-linecap:round;stroke-linejoin:round;stroke-miterlimit:4;stroke-dasharray:none;stroke-opacity:1"
         id="path158" />
      <path
         d="m 0,143.666 70.253,0.374"
         style="fill:none;stroke:#0065bd;stroke-width:2;stroke-linecap:round;stroke-linejoin:round;stroke-miterlimit:4;stroke-dasharray:none;stroke-opacity:1"
         id="path160" />
    </g>
  </g>
  <g
     transform="translate(-20,-100)"
     inkscape:label="Ebene 2"
     id="layer2"
     inkscape:groupmode="layer">
    <a
       transform="matrix(2.4000013,0,0,2.4000013,-58.65645,-171.61057)"
       id="a1301-3" />
    <circle
       style="fill:#343a40;fill-opacity:1;stroke:#343a40;stroke-width:0.499999;stroke-opacity:1"
       id="path77"
       cx="88.947296"
       cy="153.40005"
       r="7.1999998" />
    <circle
       r="7.2000003"
       cy="254.17139"
       cx="277.63434"
       id="path77-4"
       style="fill:#343a40;fill-opacity:1;stroke:#343a40;stroke-width:0.499999;stroke-opacity:1" />
    <circle
       r="7.2000003"
       cy="198.8522"
       cx="168.83638"
       id="path77-9"
       style="fill:#343a40;fill-opacity:1;stroke:#343a40;stroke-width:0.499999;stroke-opacity:1" />
    <circle
       r="7.2000003"
       cy="280.0025"
       cx="205.97743"
       id="path77-8"
       style="fill:#343a40;fill-opacity:1;stroke:#343a40;stroke-width:0.499999;stroke-opacity:1" />
    <circle
       r="7.2000003"
       cy="192.11765"
       cx="299.03745"
       id="path77-42"
       style="fill:#343a40;fill-opacity:1;stroke:#343a40;stroke-width:0.499999;stroke-opacity:1" />
    <circle
       r="7.2000003"
       cy="334.66019"
       cx="87.984253"
       id="path77-90"
       style="fill:#343a40;fill-opacity:1;stroke:#343a40;stroke-width:0.499999;stroke-opacity:1" />
    <circle
       r="7.2000003"
       cy="367.77081"
       cx="370.41669"
       id="path77-3"
       style="fill:#343a40;fill-opacity:1;stroke:#343a40;stroke-width:0.499999;stroke-opacity:1" />
    <circle
       r="7.2000003"
       cy="134.9375"
       cx="365.125"
       id="path77-32"
       style="fill:#343a40;fill-opacity:1;stroke:#343a40;stroke-width:0.499999;stroke-opacity:1" />
  </g>
</svg>
